0.485 0
0.484829 0.00539103
0.484316 0.0107604
0.483464 0.0160864
0.482276 0.0213476
0.480756 0.0265228
0.478911 0.0315913
0.476749 0.0365326
0.474277 0.0413267
0.471507 0.0459545
0.468448 0.0503972
0.465114 0.0546369
0.461517 0.0586567
0.457673 0.0624403
0.453597 0.0659724
0.449305 0.069239
0.444814 0.0722267
0.440143 0.0749235
0.43531 0.0773187
0.430335 0.0794026
0.425238 0.0811667
0.42004 0.082604
0.41476 0.0837087
0.409421 0.0844763
0.404044 0.0849037
0.398651 0.0849893
0.393264 0.0847327
0.387903 0.0841348
0.382591 0.0831982
0.37735 0.0819266
0.372199 0.0803251
0.367161 0.0784001
0.362254 0.0761595
0.3575 0.0736122
0.352917 0.0707684
0.348523 0.0676398
0.344337 0.0642387
0.340375 0.060579
0.336653 0.0566754
0.333185 0.0525435
0.329987 0.0482001
0.327071 0.0436626
0.324449 0.0389493
0.322131 0.0340791
0.320126 0.0290717
0.318443 0.0239473
0.317088 0.0187264
0.316068 0.0134301
0.315385 0.00807976
0.315043 0.00269687
0.315043 -0.00269687
0.315385 -0.00807976
0.316068 -0.0134301
0.317088 -0.0187264
0.318443 -0.0239473
0.320126 -0.0290717
0.322131 -0.0340791
0.324449 -0.0389493
0.327071 -0.0436626
0.329987 -0.0482001
0.333185 -0.0525435
0.336653 -0.0566754
0.340375 -0.060579
0.344337 -0.0642387
0.348523 -0.0676398
0.352917 -0.0707684
0.3575 -0.0736122
0.362254 -0.0761595
0.367161 -0.0784001
0.372199 -0.0803251
0.37735 -0.0819266
0.382591 -0.0831982
0.387903 -0.0841348
0.393264 -0.0847327
0.398651 -0.0849893
0.404044 -0.0849037
0.409421 -0.0844763
0.41476 -0.0837087
0.42004 -0.082604
0.425238 -0.0811667
0.430335 -0.0794026
0.43531 -0.0773187
0.440143 -0.0749235
0.444814 -0.0722267
0.449305 -0.069239
0.453597 -0.0659724
0.457673 -0.0624403
0.461517 -0.0586567
0.465114 -0.0546369
0.468448 -0.0503972
0.471507 -0.0459545
0.474277 -0.0413267
0.476749 -0.0365326
0.478911 -0.0315913
0.480756 -0.0265228
0.482276 -0.0213476
0.483464 -0.0160864
0.484316 -0.0107604
0.484829 -0.00539103
0.355208 -0.0721903
0.356354 -0.0729012
0.35072 -0.0692041
0.359877 -0.0748858
0.364708 -0.0772798
0.36968 -0.0793626
0.374774 -0.0811258
0.334919 -0.0546094
0.338514 -0.0586272
0.342356 -0.0624089
0.335786 -0.0556424
0.341365 -0.0614939
0.331586 -0.0503718
0.32329 -0.0365142
0.32576 -0.0413059
0.328529 -0.0459313
0.321128 -0.0315754
0.317766 -0.0213368
0.316578 -0.0160783
0.319285 -0.0265095
0.315726 -0.0107549
0.316323 -0.0147542
0.315214 -0.00538832
0.34643 -0.0659392
0.349622 -0.0684219
0.379971 -0.0825624
0.427787 -0.0802846
0.426513 -0.0807257
0.429061 -0.0798436
0.36968 0.0793626
0.364708 0.0772798
0.365934 0.07784
0.374774 0.0811258
0.355208 0.0721903
0.35072 0.0692041
0.359877 0.0748858
0.361066 0.0755226
0.406733 0.08469
0.401348 0.0849465
0.402696 0.0849251
0.412091 0.0840925
0.4174 0.0831563
0.390583 -0.0844337
0.385247 -0.0836665
0.44706 -0.0707328
0.463316 -0.0566468
0.464215 -0.0556419
0.462416 -0.0576518
0.466781 -0.0525171
0.459595 -0.0605485
0.455635 -0.0642064
0.395958 -0.084861
0.397304 -0.0849251
0.401348 -0.0849465
0.406733 -0.08469
0.412091 -0.0840925
0.413425 -0.0839006
0.4174 -0.0831563
0.315043 -8.67362e-18
0.315214 0.00538832
0.315299 0.00673404
0.315726 0.0107549
0.316578 0.0160783
0.328529 0.0459313
0.329258 0.0470657
0.331586 0.0503718
0.34643 0.0659392
0.347477 0.0667895
0.342356 0.0624089
0.379971 0.0825624
0.437727 0.0761211
0.432823 0.0783606
0.44706 0.0707328
0.442479 0.0735751
0.434067 0.0778397
0.395958 0.084861
0.479834 -0.0290571
0.48287 -0.018717
0.481516 -0.0239352
0.479372 -0.0303242
0.48389 -0.0134234
0.47783 -0.0340619
0.483677 -0.0147549
0.484573 -0.0080757
0.475513 -0.0389296
0.484914 -0.00269552
0.484957 -0.00134776
0.484914 0.00269552
0.484573 0.0080757
0.442479 -0.0735751
0.443646 -0.0729009
0.448182 -0.0699859
0.451451 -0.0676057
0.450378 -0.0684223
0.456654 -0.0633233
0.422639 -0.0818853
0.3278 0.044797
0.32576 0.0413059
0.385247 0.0836665
0.390583 0.0844337
0.443646 0.0729009
0.451451 0.0676057
0.448182 0.0699859
0.455635 0.0642064
0.454616 0.0650894
0.459595 0.0605485
0.427787 0.0802846
0.422639 0.0818853
0.48389 0.0134234
0.48287 0.018717
0.481516 0.0239352
0.437727 -0.0761211
0.472892 -0.0436406
0.474895 -0.0401282
0.473585 -0.0424837
0.469977 -0.0481758
0.467614 -0.0514571
0.469213 -0.0492865
0.317766 0.0213368
0.317427 0.0200316
0.319285 0.0265095
0.32329 0.0365142
0.321128 0.0315754
0.334919 0.0546094
0.436518 -0.0767199
0.432823 -0.0783606
0.335786 0.0556424
0.338514 0.0586272
0.472892 0.0436406
0.469977 0.0481758
0.463316 0.0566468
0.466781 0.0525171
0.464215 0.0556419
0.465947 0.053577
0.475513 0.0389296
0.47783 0.0340619
0.479834 0.0290571
0.421339 -0.0822447
0.472199 -0.0447975
