101
0.063539
0.0682342
0.0587372
0.0597966
0.06006
0.0602444
0.0602083
0.0601722
0.0601044
0.0600346
0.0599614
0.0598639
0.0597665
0.0596691
0.0595649
0.0594592
0.0593535
0.0592477
0.0591357
0.0590238
0.0589119
0.0587999
0.0586845
0.0585677
0.0584509
0.0583341
0.0582173
0.0580953
0.0579729
0.0578505
0.057728
0.0576056
0.0574773
0.0573459
0.0572145
0.0570831
0.0569518
0.0568204
0.0566791
0.0565367
0.0563944
0.0562521
0.0561097
0.0559674
0.0558083
0.0556413
0.0554742
0.0553072
0.0551402
0.0549731
0.0548061
0.054617
0.0544274
0.0542378
0.0540481
0.0538585
0.0536689
0.0534793
0.0532234
0.0529516
0.0526799
0.0524082
0.0521365
0.0518648
0.051593
0.0513062
0.0509469
0.0505876
0.0502283
0.049869
0.0495097
0.0491504
0.0487911
0.0484076
0.0477347
0.0470619
0.046389
0.0457162
0.0450433
0.0443704
0.0436976
0.0430247
0.0347165
0.0195181
0.00431979
-0.0108785
-0.0260769
-0.0412752
-0.0564736
-0.0716719
-0.0868703
-0.103566
-0.121587
-0.139607
-0.157628
-0.175649
-0.193669
-0.21169
-0.229711
-0.247731
-0.265752
